<?xml version="1.0" encoding="utf-8"?>
<!-- Generator: Adobe Illustrator 23.0.3, SVG Export Plug-In . SVG Version: 6.00 Build 0)  -->
<svg version="1.1" id="Capa_1" xmlns="http://www.w3.org/2000/svg" xmlns:xlink="http://www.w3.org/1999/xlink" x="0px" y="0px"
	 viewBox="0 0 512 512" style="enable-background:new 0 0 512 512;" xml:space="preserve">
<style type="text/css">
	.st0{fill:#9B2F2F;}
	.st1{fill:#742323;}
</style>
<g>
	<path class="st0" d="M501.6,288.7c-0.4,3.3-1,6.5-2.4,9.5c-3.6,7.7-11.9,12.5-20.3,13.4c-8.4,1-16.9-1.4-24.7-4.8
		c-7.8-3.4-15-7.9-22.6-11.6c-17.9-8.7-65.9-29.4-86-12.1c-3.3,2.8-5.1,6.9-5.6,11.2c-1.3,12.2,6.9,22.7,13.5,33
		c6.6,10.3,20.6,21,27.9,30.8c6.9,9.2,29.7,38,6.3,52.4c-3,1.8-6.8,1.4-10.3,0.6c-2.5-0.5-5.1-1.3-7.3-2.7
		c-4.7-2.8-7.8-7.6-9.6-12.7c-13.2-36.8-38.6-85.9-58.1-87.4c-3.4-0.3-6.8,0.5-9.3,2.8c-6.2,5.9-7.2,15.3-7.2,23.8
		c0,12.6,1.4,25.2,4,37.5c1.5,7.2,3.5,14.3,5,21.6c0.3,1.5,0.6,2.9,0.8,4.4c2.8,15.8,3.2,32.1,1.3,48c-1.4,12.1-4.3,24.3-10.5,34.9
		c-6.2,10.5-16.1,19.3-28,22.1c-11.9,2.9-25.6-1.1-32.7-11c-2.7-3.8-4.3-8.1-5.8-12.5c-1.9-5.8-3.6-11.7-4.3-17.7
		c0-0.3-0.1-0.6-0.1-0.9c-1.9-19.5,6.3-38.6,14.2-56.5c9.7-21.9,34.8-74.2,18.3-81.7c-6.6-3-14.4,2.1-20.1,6.6
		c-16.4,12.8-25.4,32.9-40,47.7c-12,12.3-27.6,20.6-43.9,26c-6.9,2.3-14,4.1-21.3,4.1c-7.3,0-14.7-2.1-20.2-6.9
		c-3.6-3.1-6.3-7.6-6.2-12.3c0.1-3.6,1.8-7,3.9-10c7.6-11.3,19.6-19,32-24.4c12.5-5.4,25.7-8.9,38.4-13.8
		c11.6-4.4,22.8-10.1,32.4-17.9c9.6-7.8,17.5-18,21.4-29.7c2.1-6.4,2.9-13.9-1.1-19.3c-1.6-2.2-4-3.9-6.5-5.1
		c-10.8-5.2-23.8-1.8-34.3,3.9c-10.5,5.7-19.9,13.6-30.9,18c-8.1,3.3-17,4.6-25.6,3.8c-9.1-0.8-18.4-4.1-24.4-11
		c-6-6.9-8-17.7-3-25.4c3.1-4.7,8.2-7.6,13.4-9.6c11.5-4.3,24.2-4.8,36.5-3.6c15.1,1.4,30.5,5.1,45.1,0.9c5.7-1.7,13.3-3.5,14.3-9.4
		c1.1-6.3-1.6-12.8-5.9-17.5c-4.2-4.8-9.8-8.1-15.4-11.3c-28.3-16.1-59.1-29.7-81-53.8c-4.9-5.4-8.1-12-10.7-18.9
		c-7.1-18.7,6.7-32.6,13.9-35.9c6.5-3,14.5-0.8,20,3.8c5.6,4.5,9.2,10.9,12.7,17.2c9.8,17.8,19.2,36.2,33.4,50.7
		c14.2,14.5,34.4,24.8,54.4,21.9c11.1-1.6,22.1-7.9,26.4-18.2c5-11.8,0.3-25.2-1.8-37.8c-1.5-9.1-1.7-18.3-0.5-27.4
		c0.8-6,2.3-12.2,5.8-17.1c3.5-4.9,9.6-8.4,15.6-7.6c9.9,1.4,14.8,13.5,13.6,23.4c-1.2,9.9-7.9,18.9-8.1,28.9
		c-1.1,50.6,32.3,38.2,46.1,16.6c5.5-8.6,11.1-17.1,15.4-26.4c11.7-25.3,25.3-50.1,44.3-70.4c4.5-4.8,9.4-9.4,15.4-12.2
		c6-2.7,13.3-3.3,19,0c6.5,3.7,9.6,11.7,9.3,19.1c-0.4,7.4-3.7,14.4-7.8,20.7c-4.8,7.3-10.7,13.8-17.2,19.5
		c-78.3,68.7-58.5,85.6-53.4,88.1c5.1,2.5,11.2,2.1,16.8,1.2c11.7-1.8,23-5.6,33.5-11.1c8.5-4.5,16.4-10.2,25.2-13.8
		c0.1,0,0.1-0.1,0.2-0.1c0.2-0.1,0.5-0.2,0.7-0.3c0.5-0.2,1-0.4,1.5-0.6c9.8-3.6,21.7-3.9,30,2.6c3,2.4,5.5,5.7,6.1,9.5
		c0.9,5.6-2.2,11-6.1,15.1c-7,7.3-17.1,10.2-27.1,11.4c-6.4,0.8-13.6,1.9-20.9,3.4c-8.9,1.9-17.9,4.3-25.5,7.6
		c-15.7,6.7-26,16.8-18.8,31.8c3.8,8,16.3,6.6,25.1,7.2c2.2,0.2,4.3,0.3,6.5,0.4c22.5,1.1,45-1.1,67.6-0.6
		c11,0.3,23.4,1.9,30.2,10.5C501.9,271.8,502.6,280.6,501.6,288.7z"/>
	<path class="st1" d="M257.6,20.2c-4.8,12-10,36,13.9,37.7c7,0.5,14.3-3.6,17.3-10C309.2,3.5,266.5-2,257.6,20.2z"/>
	<path class="st1" d="M10,277c0.3,13.1,14.3,31.7,42.8,22.7c13-4.1,14.4-19.1,14.6-24.7c0.1-3.5-0.2-7.1-1.5-10.4
		c-2.4-5.9-7.9-9.9-13.9-12.1C34.1,246.2,9.4,254.7,10,277z"/>
	<path class="st1" d="M412.9,471c14.5,27.3,65.5,18.4,39.9-27.5c-8.2-14.7-26-19.6-35.2-13.3C406.9,437.5,405.6,457.1,412.9,471z"/>
</g>
<g>
	<path class="st1" d="M297.2,446.6c-1.4,12.1-4.3,24.3-10.5,34.9c-6.2,10.5-16.1,19.3-28,22.1c-11.9,2.9-25.6-1.1-32.7-11
		c-2.7-3.8-4.3-8.1-5.8-12.5c-1.9-5.8-3.6-11.7-4.3-17.7c0-0.3-0.1-0.6-0.1-0.9c13.1,9.8,22.6,16.5,40.2,10.5s37.6-34.5,39.8-73.4
		C298.6,414.4,299.1,430.6,297.2,446.6z"/>
	<path class="st1" d="M400.5,62.9c-0.4,7.5-3.2,14.9-7.8,20.7C323,170.7,346.5,191,350.2,190c-6.3-5.1-15.3-25,55.2-86.9
		c6.5-5.8,12.5-12.3,17.2-19.5c4.1-6.2,7.4-13.2,7.8-20.7c0.4-7.4-2.8-15.4-9.3-19.1c-5.7-3.3-13-2.7-19,0c-2.3,1-4.5,2.4-6.5,3.9
		C399.1,51.8,400.7,57.5,400.5,62.9z"/>
	<path class="st1" d="M459.9,193.6c-7,7.3-17.1,10.2-27.1,11.4c-6.4,0.8-13.6,1.9-20.9,3.4c8.4-4.1,15.9-10.2,20.5-13.1
		c14.4-9.1,0.6-23.9-2.4-26.3c-0.8-0.6-1.6-1.1-2.4-1.6c0.1,0,0.1-0.1,0.2-0.1c0.2-0.1,0.5-0.2,0.7-0.3c0.5-0.2,1-0.4,1.5-0.6
		c9.8-3.6,21.7-3.9,30,2.6c3,2.4,5.5,5.7,6.1,9.5C466.9,184.1,463.8,189.6,459.9,193.6z"/>
	<path class="st1" d="M353.6,327.4c-6.6-10.3-14.8-20.9-13.5-33c0.5-4.3,2.3-8.4,5.6-11.2c2.5-2.2,5.5-3.7,8.7-4.8
		c-41.9,6.4-9.1,63.7-4.9,69.4c5.9,8,25.7,40.9,15.6,56.2c1.5,1.8,3.2,3.4,5.2,4.6c2.2,1.3,4.8,2.1,7.3,2.7
		c3.4,0.8,7.3,1.2,10.3-0.6c23.4-14.4,0.6-43.2-6.3-52.4C374.2,348.4,360.2,337.7,353.6,327.4z"/>
	<path class="st1" d="M496.9,265.5c-6.8-8.7-19.2-10.3-30.2-10.5c-8.3-0.2-16.7,0-25,0.2c9.6,0.7,19.4,2.9,25.2,10.3
		c5,6.4,5.7,15.2,4.8,23.3c-0.4,3.3-1,6.5-2.4,9.5c-2.1,4.6-6,8.1-10.5,10.5c6.5,2.4,13.4,3.8,20.2,3c8.4-1,16.7-5.7,20.3-13.4
		c1.4-3,2-6.3,2.4-9.5C502.6,280.6,501.9,271.8,496.9,265.5z"/>
	<path class="st1" d="M223.7,333.6c-0.3-5.1-1.9-8.8-5.4-10.4c-6.6-3-14.4,2.1-20.1,6.6c-16.4,12.8-25.4,32.9-40,47.7
		c-12,12.3-27.6,20.6-43.9,26c-1.5,0.5-3.1,1-4.6,1.4c4.2,1.8,8.8,2.6,13.3,2.6c7.3,0,14.4-1.8,21.3-4.1c16.3-5.4,31.9-13.8,43.9-26
		C201.4,364,210,346.3,223.7,333.6z"/>
	<path class="st1" d="M112.1,119.4c39.4,50.6,93,71.6,95.4,70.8c-12-3.6-23.2-11-32-20.1c-14.2-14.5-23.6-32.9-33.4-50.7
		c-3.4-6.3-7.1-12.7-12.7-17.2c-5.6-4.5-13.5-6.8-20-3.8c-2.2,1-5,3-7.7,5.9C106,108.6,108.3,114.5,112.1,119.4z"/>
</g>
<path d="M502.7,260.8c-8.9-11.3-23.9-13.1-35.9-13.4c-10.5-0.2-21.1,0.1-31.3,0.4c-14,0.4-28.4,0.9-42.4-0.2
	c-1.8-0.1-3.7-0.2-5.5-0.3c-4.9-0.2-12.2-0.4-13.4-2.7c-2.6-5.4-1.5-8.6-0.4-10.5c5.2-9.6,27.6-17.7,59.8-21.7
	c14.1-1.8,24.5-6.2,31.6-13.7c6.4-6.6,9.2-14.2,8.1-21.5c-0.9-5.4-4-10.4-8.8-14.2c-9.4-7.4-23.2-8.8-37.1-3.7
	c-7.2,2.6-13.5,6.4-19.7,10.1c-3.1,1.8-6,3.6-8.9,5.1c-9.7,5.2-20.2,8.7-31.1,10.3c-3.9,0.6-8.9,1.1-12.4-0.6
	c-0.2-0.1-1.4-0.8-1.7-3.1c-0.6-4.8,1.6-24.1,56.8-72.6c7.4-6.5,13.7-13.6,18.6-21.1c5.7-8.7,8.6-16.7,9-24.4
	c0.5-10.9-4.6-21.1-13-26c-7.3-4.2-17-4.3-25.8-0.3c-7.4,3.3-13.1,8.9-17.8,13.9c-21.1,22.6-35.5,50.6-45.6,72.4
	c-3.7,8-8.4,15.3-13.4,23.1l-1.5,2.4c-6.5,10.1-17.3,17-23.7,15.1c-5.7-1.7-8.9-12-8.6-27.4c0.1-4,1.8-8.4,3.6-12.9
	c1.9-4.7,3.8-9.7,4.5-15.2c1.6-13.6-5.6-29.6-20-31.7c-8.3-1.2-17.2,3-22.7,10.6c-4.9,6.8-6.4,14.9-7.1,20.5
	c-1.3,9.9-1.1,19.8,0.5,29.7c0.5,2.7,1,5.5,1.6,8.1c1.9,9.4,3.8,18.3,0.7,25.6c-2.9,6.9-11,12.3-20.6,13.7
	c-15.7,2.3-33.7-5.1-48-19.7c-0.8-0.9-1.7-1.8-2.5-2.7c-2.8-3.1-7.5-3.3-10.6-0.5c-3.1,2.8-3.3,7.5-0.5,10.6c1,1.1,1.9,2.1,2.9,3.1
	c15.4,15.8,34.8,24.6,53.1,24.6c2.6,0,5.3-0.2,7.8-0.6c14.9-2.2,27.3-10.8,32.3-22.7c4.9-11.6,2.4-23.7,0.2-34.4
	c-0.5-2.6-1.1-5.1-1.5-7.6c-1.4-8.3-1.6-16.8-0.5-25.2c0.8-6.2,2.2-10.6,4.4-13.7c2.2-3.1,5.7-4.9,8.4-4.5c5,0.7,8,8.7,7.3,15.1
	c-0.4,3.6-1.9,7.4-3.5,11.5c-2.1,5.3-4.5,11.4-4.6,18.1c-0.4,16.4,2.7,37.1,19.2,42.1c14.9,4.5,31.8-7.3,40.7-21.3l1.5-2.4
	c5-7.9,10.2-16,14.4-24.9c9.7-20.8,23.3-47.4,43-68.5c3.8-4.1,8-8.2,13-10.4c4.4-2,9-2.1,12.2-0.3c3.5,2,5.8,7,5.5,12.2
	c-0.2,5-2.4,10.5-6.6,16.9c-4.1,6.3-9.5,12.4-15.9,18c-44.2,38.8-64.3,66.9-61.7,85.9c1.3,9.6,8,13.6,10.1,14.5
	c7.2,3.5,15.1,2.8,21.2,1.9c12.6-1.9,24.6-6,35.8-11.9c3.3-1.8,6.5-3.7,9.6-5.5c5.8-3.5,11.3-6.7,17.1-8.9
	c6.9-2.5,16.6-3.5,22.8,1.4c1.8,1.4,3,3.2,3.3,4.8c0.4,2.4-1.1,5.6-4.1,8.7c-4.7,4.9-12.1,7.9-22.7,9.2
	c-39.2,4.9-63.1,14.8-71.1,29.4c-2.8,5.1-5,13.4,0.1,24.1c5.1,10.6,17.4,11,26.4,11.3c1.7,0.1,3.4,0.1,4.8,0.2
	c14.8,1.1,29.6,0.7,44,0.2c10-0.3,20.4-0.6,30.4-0.4c8.8,0.2,19.5,1.3,24.5,7.7c3.8,4.9,3.9,12.3,3.2,17.8c-0.4,3.2-0.9,5.4-1.7,7.2
	c-2.2,4.8-7.8,8.4-14.4,9.1c-6,0.7-12.8-0.7-20.8-4.2c-3.3-1.5-6.5-3.1-9.3-4.6c-3.7-2-8.2-0.6-10.1,3.1c-2,3.7-0.6,8.2,3.1,10.1
	c3,1.6,6.6,3.5,10.3,5.1c8.6,3.8,16.4,5.6,23.7,5.6c1.6,0,3.2-0.1,4.8-0.3c11.8-1.4,21.8-8.2,26.3-17.7c2-4.2,2.6-8.5,3-11.8
	C510.5,277.6,508.3,267.9,502.7,260.8z"/>
<path d="M388.2,354.6l-0.7-0.9c-3.6-4.9-8.6-9.8-13.5-14.6c-5.4-5.3-11-10.9-14.2-15.8c-0.8-1.2-1.6-2.4-2.4-3.7
	c-5.6-8.4-10.8-16.4-10-24.5c0.3-2.7,1.4-4.9,3-6.3c9.7-8.3,32.8-5.8,63.4,6.7c3.8,1.6,8.2-0.3,9.8-4.1c1.6-3.8-0.3-8.2-4.1-9.8
	c-37.6-15.4-64.1-16.9-78.9-4.2c-4.6,3.9-7.5,9.6-8.2,16.1c-1.4,13.4,5.9,24.5,12.4,34.3c0.8,1.2,1.6,2.4,2.3,3.5
	c4.1,6.3,10.3,12.4,16.2,18.3c4.6,4.6,9,8.9,12,12.9l0.7,0.9c4.4,5.9,16.2,21.5,14.2,32.2c-0.4,2.1-1.5,5.4-6.5,8.4
	c-0.1,0.1-1,0.5-4.7-0.3c-2.2-0.5-3.8-1.1-5.1-1.8c-2.7-1.6-4.9-4.7-6.4-8.8c-7.5-20.9-17.5-42.2-27.4-58.3
	c-13.5-22-25.7-33.1-37.3-34c-5.9-0.4-11.2,1.3-15,4.8c-8.5,8-9.5,19.8-9.5,29.3c0,13.1,1.4,26.2,4.1,39.1c0.7,3.5,1.6,7,2.4,10.4
	c0.9,3.6,1.8,7.4,2.5,11.1c1.4,6.9,2.4,14.1,2.8,21.2c0.3,4,3.6,7,7.5,7c0.2,0,0.3,0,0.5,0c4.1-0.3,7.3-3.8,7-8
	c-0.5-7.8-1.6-15.6-3.1-23.2c-0.8-3.9-1.7-7.8-2.7-11.6c-0.8-3.3-1.6-6.7-2.3-10c-2.5-11.8-3.8-23.9-3.8-36c0-6.4,0.5-14.3,4.8-18.3
	c0.9-0.9,2.8-0.8,3.6-0.8c4.6,0.3,13.8,7.6,25.6,26.9c9.2,15.1,19,35.9,26,55.5c1.9,5.2,5.6,12.3,12.9,16.6c2.7,1.6,5.7,2.7,9.6,3.6
	c4.6,1,10.5,1.7,15.8-1.6c7.4-4.6,11.9-10.8,13.4-18.4C408.4,381.4,394.8,363.3,388.2,354.6z"/>
<path d="M298,439.2c-4.1-0.5-7.8,2.4-8.3,6.6c-1.6,13.3-4.7,23.7-9.6,31.9c-5.7,9.7-14.2,16.5-23.3,18.7c-9.5,2.3-19.9-1.1-24.9-8.1
	c-2-2.8-3.3-6.2-4.8-10.5c-2.2-6.5-3.4-11.5-3.9-16.2c-2.1-18.4,6.2-37.1,13.5-53.6c0.7-1.7,1.6-3.5,2.5-5.5
	c5.3-11.9,13.4-29.8,18-45.4c2.5-8.3,9.9-33.4-5.9-40.6c-11.4-5.2-22.9,3.7-27.9,7.5c-10.3,8-17.8,18.4-25,28.5
	c-5.1,7.2-10,14-15.8,19.9c-10.2,10.3-23.9,18.5-40.9,24.1c-5.2,1.7-12.1,3.7-18.8,3.7c-6.2,0-11.6-1.8-15.3-5.1
	c-2.3-2-3.6-4.4-3.6-6.4c0-1.6,0.9-3.5,2.6-6.1c5.8-8.6,15.5-15.9,28.8-21.7c7-3,14.2-5.4,21.8-8c5.4-1.8,10.9-3.6,16.3-5.7
	c14-5.4,25.3-11.6,34.4-19.1c11.4-9.4,19.7-20.8,23.8-33.2c3.4-10.3,2.7-19.6-2.1-26.1c-2.2-3.1-5.4-5.6-9.3-7.4
	c-11.5-5.5-26.1-4-41.1,4.1c-4.4,2.4-8.5,5.1-12.5,7.7c-6,3.9-11.6,7.5-17.6,10c-7,2.8-14.7,4-22.2,3.3c-4.9-0.4-13.8-2.1-19.4-8.5
	c-4.2-4.8-5.2-11.9-2.3-16.3c1.7-2.6,5-4.9,9.8-6.7c9-3.4,19.8-4.4,33.1-3.1c3.2,0.3,6.4,0.7,9.8,1.1c12.4,1.6,25.2,3.2,38-0.5
	l0.9-0.2c6.3-1.8,16.9-4.8,18.8-15c1.4-8.1-1.3-16.7-7.6-23.8c-5-5.6-11.2-9.4-17.3-12.8c-5.6-3.2-11.4-6.3-17.1-9.4
	c-22.3-12.1-45.4-24.6-62.1-43c-3.5-3.9-6.3-8.8-9.2-16.5c-5.4-14.1,5.5-24.3,10.1-26.4c3.3-1.5,8.3-0.4,12.1,2.8
	c4.3,3.5,7.5,8.9,10.8,15c0.9,1.6,1.7,3.1,2.6,4.7c3.1,5.6,6.3,11.5,9.6,17.2c2.1,3.6,6.7,4.8,10.3,2.6s4.8-6.7,2.6-10.3
	c-3.2-5.5-6.4-11.2-9.4-16.7c-0.9-1.6-1.7-3.2-2.6-4.8c-3.2-5.8-7.6-13.8-14.5-19.4c-8.4-6.8-19.4-8.7-27.9-4.7
	c-12,5.6-25.9,23.8-17.8,45.3c2.4,6.3,6,14.5,12.1,21.3c18.5,20.3,42.7,33.4,66.1,46.1c5.5,3,11.3,6.1,16.8,9.2
	c5.1,2.9,10,5.8,13.4,9.7c3.1,3.5,4.7,7.8,4.1,11.2c-0.9,1.2-6,2.7-8.1,3.3l-0.9,0.3c-9.8,2.8-20.6,1.5-32,0
	c-3.4-0.4-6.9-0.9-10.3-1.2c-15.6-1.5-28.6-0.2-39.8,4c-7.9,3-13.5,7.1-17.1,12.5c-6.6,10.1-5.1,24.6,3.6,34.4
	c6.7,7.6,17.2,12.4,29.4,13.5c9.9,0.9,19.9-0.6,29.1-4.3c7.4-3,13.9-7.2,20.2-11.3c3.9-2.6,7.6-5,11.5-7.1c6.2-3.4,18-8.3,27.5-3.8
	c1.7,0.8,2.9,1.8,3.7,2.8c2.6,3.5,0.9,9.9,0,12.5c-3.2,9.7-9.8,18.8-19.1,26.3c-7.9,6.5-17.8,11.9-30.3,16.7
	c-5.1,2-10.5,3.7-15.7,5.5c-7.6,2.5-15.4,5.1-23,8.4c-16,7-27.9,16.1-35.3,27.1c-2.1,3.2-4.9,8-5.1,14c-0.2,6.6,3,13.2,8.7,18.2
	c6.4,5.6,15.3,8.7,25,8.7c0.1,0,0.2,0,0.3,0c8.8,0,17.1-2.4,23.4-4.5c19.3-6.4,35.1-15.8,46.9-27.9c6.6-6.7,12-14.3,17.3-21.7
	c6.9-9.6,13.4-18.7,21.9-25.3c7.6-5.9,11-6.4,12.4-5.7c0,0,3.5,3.4-2.2,22.7c-4.4,14.7-11.9,31.4-17.3,43.6c-0.9,2-1.7,3.9-2.5,5.6
	c-7.7,17.3-17.2,38.9-14.7,61.3c0.8,7.3,2.9,14.1,4.6,19.2c1.6,4.8,3.5,9.9,6.8,14.5c6.8,9.5,18.8,15.1,31.1,15.1
	c3.2,0,6.3-0.4,9.5-1.1c13-3.1,24.9-12.5,32.7-25.6c5.9-10,9.7-22.4,11.5-37.8C305.1,443.4,302.2,439.6,298,439.2z"/>
<path d="M271,65.4c0.6,0,1.1,0.1,1.7,0.1c9.7,0,18.9-5.7,22.9-14.4c10-21.7,6.1-34.4,1-41.2c-5.3-7.2-14.1-10.8-23.6-9.6
	c-10.1,1.3-18.7,7.9-22.4,17.2l0,0c-2.8,7-8.4,24.5-0.7,36.8C252.9,58.8,258.9,64.5,271,65.4z M264.6,23L264.6,23
	c2-5.1,6.7-7.4,10.4-7.9c0.6-0.1,1.1-0.1,1.6-0.1c3.3,0,6.2,1.3,7.9,3.7c3.7,5,2.8,14.5-2.6,26.1c-1.6,3.4-5.9,5.9-9.9,5.6
	c-7.1-0.5-8.8-3.3-9.4-4.2C259.9,41.9,260.7,32.8,264.6,23z"/>
<path d="M54.6,245.5c-13.1-4.7-28.4-2.7-39,5c-8.7,6.3-13.3,15.8-13,26.8c0.3,9.8,5.7,19.6,14.2,25.7c4.8,3.4,12,6.7,21.9,6.7
	c4.8,0,10.3-0.8,16.5-2.7c12.1-3.8,19.4-15.4,19.8-31.7c0.2-5.4-0.5-9.6-2-13.4C69.9,254.5,63.2,248.6,54.6,245.5z M59.9,274.8
	c-0.2,5.6-1.6,15.4-9.3,17.8c-10.2,3.2-18.9,2.6-25.2-1.9c-5.7-4-7.8-10-7.9-13.8c-0.2-6,2.1-10.8,6.9-14.2c6.5-4.7,16.9-5.9,25.2-3
	c4.6,1.6,8.1,4.5,9.4,7.8C59.7,269.2,60,271.6,59.9,274.8z"/>
<path d="M434.6,420.9c-7.9-1.9-15.6-0.7-21.2,3.1c-6.9,4.7-11.3,13-12.4,23.4c-0.9,9.2,1,19.1,5.2,27.1c6.1,11.6,18.1,19,31.3,19.4
	c0.4,0,0.7,0,1.1,0c10.6,0,19.8-4.8,24.7-12.9c4.5-7.4,7.4-20.5-4.1-41.2C454,430.2,445,423.3,434.6,420.9z M450.6,473.2
	c-2.3,3.7-6.9,5.8-12.5,5.7c-6.1-0.2-14.2-3.3-18.5-11.4c-5.8-10.9-4.6-26.3,2.4-31.1c1.3-0.9,3.2-1.4,5.3-1.4c1.3,0,2.6,0.2,4,0.5
	c6.2,1.5,11.8,5.8,15.1,11.7C452.4,458.2,454,467.7,450.6,473.2z"/>
</svg>
